<?xml version="1.0" encoding="UTF-8" standalone="no"?>
<!DOCTYPE svg PUBLIC "-//W3C//DTD SVG 1.0//EN" "http://www.w3.org/TR/2001/REC-SVG-20010904/DTD/svg10.dtd">
<svg xmlns="http://www.w3.org/2000/svg" xmlns:xlink="http://www.w3.org/1999/xlink" xmlns:ev="http://www.w3.org/2001/xml-events"
		xmlns:v="http://schemas.microsoft.com/visio/2003/SVGExtensions/" width="6.66667in" height="7.33334in" viewBox="0 0 480 528"
		xml:space="preserve" color-interpolation-filters="sRGB" class="st7">
	<v:documentProperties v:langID="1033" v:viewMarkup="false"/>

	<style type="text/css">
	<![CDATA[
		.st1 {fill:#f2f2f2;stroke:none;stroke-linecap:round;stroke-linejoin:round;stroke-width:1}
		.st2 {fill:#d8d8d8;stroke:none;stroke-linecap:round;stroke-linejoin:round;stroke-width:0.75}
		.st3 {fill:#8db1e2;stroke:none;stroke-linecap:round;stroke-linejoin:round;stroke-width:0.75}
		.st4 {stroke:#000000;stroke-linecap:round;stroke-linejoin:round;stroke-width:60}
		.st5 {stroke:#ff0000;stroke-linecap:round;stroke-linejoin:round;stroke-width:40}
		.st6 {fill:#000000;font-family:Arial Black;font-size:4.99999em}
		.st7 {fill:none;fill-rule:evenodd;font-size:12px;overflow:visible;stroke-linecap:square;stroke-miterlimit:3}
	]]>
	</style>

	<g v:mID="0" v:index="1" v:groupContext="foregroundPage">
		<title>Page-1</title>
		<v:pageProperties v:drawingScale="1" v:pageScale="1" v:drawingUnits="19" v:shadowOffsetX="9" v:shadowOffsetY="-9"/>
		<v:layer v:name="Connector" v:index="0"/>
		<g id="group9-1" transform="translate(24,-72.0003)" v:mID="9" v:groupContext="group">
			<title>Sheet.9</title>
			<desc>UPSide</desc>
			<g id="shape1-2" v:mID="1" v:groupContext="shape">
				<title>Sheet.1</title>
				<rect x="0" y="96.0003" width="432" height="432" rx="36" ry="36" class="st1"/>
			</g>
			<g id="group7-4" transform="translate(144,-36)" v:mID="7" v:groupContext="group">
				<title>Sheet.7</title>
				<g id="shape6-5" v:mID="6" v:groupContext="shape" transform="translate(36,-324)">
					<title>Sheet.6</title>
					<rect x="0" y="492" width="72" height="36" class="st2"/>
				</g>
				<g id="shape5-7" v:mID="5" v:groupContext="shape">
					<title>Sheet.5</title>
					<rect x="0" y="186" width="144" height="342" rx="9" ry="9" class="st3"/>
				</g>
			</g>
			<g id="group4-9" transform="translate(36,-36)" v:mID="4" v:groupContext="group">
				<title>Sheet.4</title>
				<g id="shape2-10" v:mID="2" v:groupContext="shape" v:layerMember="0" transform="translate(0,-360)">
					<title>Dynamic connector</title>
					<path d="M0 528 C180 636 180 636 180 888" class="st4"/>
				</g>
				<g id="shape3-13" v:mID="3" v:groupContext="shape" v:layerMember="0" transform="translate(360,-360)">
					<title>Dynamic connector.3</title>
					<path d="M0 528 C-180 636 -180 636 -180 888" class="st4"/>
				</g>
			</g>
			<g id="shape8-16" v:mID="8" v:groupContext="shape" v:layerMember="0" transform="translate(36,-135)">
				<title>Dynamic connector</title>
				<path d="M0 519 C72 375 132.05 449.89 186.05 521.89 C240.05 593.89 288 663 360 519" class="st5"/>
			</g>
			<g id="shape9-19" v:mID="9" v:groupContext="groupContent">
				<v:textBlock v:margins="rect(4,4,4,4)"/>
				<v:textRect cx="216" cy="564" width="432" height="72"/>
				<text x="97.67" y="582" class="st6" v:langID="1033"><v:paragraph v:horizAlign="1"/><v:tabList/>UPSide</text>			</g>
		</g>
	</g>
</svg>
